<svg xmlns="http://www.w3.org/2000/svg" width="13" height="40" viewBox="0 0 13 40">
  <text id="_-" data-name="-" transform="translate(0 32)" fill="#fff" font-size="30" font-family="SegoeUI-Bold, Segoe UI" font-weight="700"><tspan x="0" y="0">-</tspan></text>
</svg>
