<svg xmlns="http://www.w3.org/2000/svg" width="145" height="27" viewBox="0 0 145 27">
  <text id="_08:31_04_03_2021" data-name="08:31  04/03/2021" transform="translate(0 22)" fill="#fff" font-size="20" font-family="SegoeUI-Bold, Segoe UI" font-weight="700"><tspan x="0" y="0" xml:space="preserve">08:31  </tspan><tspan y="0" fill="#c4c4c4" font-size="15">04/03/2021</tspan></text>
</svg>
