<svg xmlns="http://www.w3.org/2000/svg" width="20.138" height="20.145" viewBox="0 0 20.138 20.145">
  <g id="check" transform="translate(-0.083)">
    <g id="Group_27" data-name="Group 27" transform="translate(0.083 0)">
      <ellipse id="Ellipse_1" data-name="Ellipse 1" cx="10.069" cy="10.072" rx="10.069" ry="10.072" transform="translate(0)" fill="#00df76"/>
    </g>
    <path id="Path_25" data-name="Path 25" d="M108.073,148.62l4.073,4.073a.455.455,0,0,0,.643,0l6.686-6.686a.455.455,0,0,0,0-.643l-1.217-1.217a.455.455,0,0,0-.643,0l-4.863,4.863a.455.455,0,0,1-.643,0l-2.179-2.179a.455.455,0,0,0-.634-.009l-1.213,1.147A.455.455,0,0,0,108.073,148.62Z" transform="translate(-103.613 -138.347)" fill="#fff5f5"/>
    <path id="Path_26" data-name="Path 26" d="M260.191,144.145a.455.455,0,0,0-.643,0l-3.863,3.863v3.721l5.723-5.723a.455.455,0,0,0,0-.643Z" transform="translate(-245.546 -138.346)" fill="#dfebf1"/>
  </g>
</svg>
