<svg xmlns="http://www.w3.org/2000/svg" width="30.5" height="32.855" viewBox="0 0 30.5 32.855">
  <path id="exit" d="M22.006,25.155v2.567a4.966,4.966,0,0,1-4.766,5.134H5.266A4.966,4.966,0,0,1,.5,27.721V5.134A4.966,4.966,0,0,1,5.266,0H17.24a4.966,4.966,0,0,1,4.766,5.134V7.7a1.195,1.195,0,1,1-2.383,0V5.134A2.483,2.483,0,0,0,17.24,2.567H5.266A2.483,2.483,0,0,0,2.883,5.134V27.721a2.483,2.483,0,0,0,2.383,2.567H17.24a2.483,2.483,0,0,0,2.383-2.567V25.155a1.195,1.195,0,1,1,2.383,0Zm8.123-10.932-2.668-2.874a1.132,1.132,0,0,0-1.685,0,1.354,1.354,0,0,0,0,1.815l1.9,2.044H13.368a1.287,1.287,0,0,0,0,2.567H27.674l-1.9,2.044a1.354,1.354,0,0,0,0,1.815,1.132,1.132,0,0,0,1.685,0l2.668-2.874a3.39,3.39,0,0,0,0-4.538Zm0,0" transform="translate(-0.5)" fill="#0c88c6"/>
</svg>
