<svg xmlns="http://www.w3.org/2000/svg" width="91" height="27" viewBox="0 0 91 27">
  <text id="Leo_Vallin" data-name="Leo Vallin" transform="translate(0 22)" fill="#fff" font-size="20" font-family="SegoeUI-Bold, Segoe UI" font-weight="700"><tspan x="0" y="0">Leo Vallin</tspan></text>
</svg>
