<svg xmlns="http://www.w3.org/2000/svg" width="22.25" height="14.25" viewBox="0 0 22.25 14.25">
  <path id="Path_15" data-name="Path 15" d="M11.126,111.391a1.471,1.471,0,0,1-1.1-.512L.457,100.129a1.907,1.907,0,0,1,0-2.476,1.44,1.44,0,0,1,2.2,0l8.465,9.511,8.465-9.511a1.44,1.44,0,0,1,2.2,0,1.906,1.906,0,0,1,0,2.476l-9.567,10.749A1.471,1.471,0,0,1,11.126,111.391Z" transform="translate(-0.001 -97.141)" fill="#ff3e58"/>
</svg>
